Bias in Facial Classification ML Models - 4 Results
…
Other
Female
0.8379888
0.9216000
0.8341205
0.9136183
0.3972341
0.4477643
0.0000000
0.0000000

# A tibble: 71 × 9
   Race  Category source_prop   n_d  prop_d p_value_d   n_f prop_f p_value_f
   <chr> <chr>          <dbl> <dbl>   <dbl>     <dbl> <dbl>  <dbl>     <dbl>
 1 All   0-2           0.0880 24053 0       0         24091 0.0763  3.11e- 6
 2 All   3-9           0.0569 24053 0       9.20e-293 24091 0.0665  1.37e- 5
 3 All   10-19         0.0698 24053 0.0206  2.52e-148 24091 0.0606  5.22e- 5
 4 All   20-29         0.324  24053 0.399   2.00e- 65 24091 0.348   2.14e- 8
 5 All   30-39         0.180  24053 0.405   0         24091 0.176   2.58e- 1
 6 All   40-49         0.0873 24053 0.147   1.65e- 91 24091 0.102   1.65e- 8
 7 All   50-59         0.0923 24053 0.0268  3.66e-202 24091 0.0931  7.89e- 1
 8 All   60-69         0.0491 24053 0.00241 9.81e-229 24091 0.0491  1.00e+ 0
 9 All   70-130        0.0525 24053 0       1.08e-283 24091 0.0278  2.83e-43
10 All   White         0.424  24053 0.376   2.70e- 27 24091 0.385   5.83e-18
# ℹ 61 more rows
…
